{
  "photos": {
    "page": 1,
    "pages": 96050,
    "perpage": 10,
    "total": "960492",
    "photo": [
      {
        "id": "22408121799",
        "owner": "133231929@N05",
        "secret": "5a41e793fc",
        "server": "5749",
        "farm": 6,
        "title": "Next Launcher 3D Shell v3.7.3 APK Download | Android Pro Full Apk",
        "ispublic": 1,
        "isfriend": 0,
        "isfamily": 0
      },
      {
        "id": "22811503261",
        "owner": "137223639@N03",
        "secret": "29ee7bc678",
        "server": "780",
        "farm": 1,
        "title": "SNOWJINKS Android APK Free Download Game",
        "ispublic": 1,
        "isfriend": 0,
        "isfamily": 0
      },
      {
        "id": "22800281525",
        "owner": "130367003@N05",
        "secret": "082a40ff4a",
        "server": "5652",
        "farm": 6,
        "title": "Meizu Pro 5 Mini with Helio X20 SoC & 3GB RAM Listed Online For \u20ac360 http:\/\/ift.tt\/1kvryvk",
        "ispublic": 1,
        "isfriend": 0,
        "isfamily": 0
      }
    ]
  }
}